<?xml version="1.0" encoding="UTF-8"?>
<svg width="12px" height="21px" viewBox="0 0 12 21" version="1.1" xmlns="http://www.w3.org/2000/svg" xmlns:xlink="http://www.w3.org/1999/xlink">
    <!-- Generator: Sketch 53 (72520) - https://sketchapp.com -->
    <title>Arrow-left - simple-line-icons</title>
    <desc>Created with Sketch.</desc>
    <g id="Home" stroke="none" stroke-width="1" fill="none" fill-rule="evenodd" font-family="simple-line-icons" font-size="20" font-weight="normal">
        <g id="Stories" transform="translate(-277.000000, -329.000000)" fill="#505050">
            <g id="Group-2" transform="translate(273.000000, 80.000000)">
                <g id="Group-4">
                    <text id="Arrow-left---simple-line-icons">
                        <tspan x="0" y="268"></tspan>
                    </text>
                </g>
            </g>
        </g>
    </g>
</svg>