<?xml version="1.0" encoding="UTF-8"?>
<svg width="14px" height="17px" viewBox="0 0 14 17" version="1.1" xmlns="http://www.w3.org/2000/svg" xmlns:xlink="http://www.w3.org/1999/xlink">
    <!-- Generator: Sketch 53 (72520) - https://sketchapp.com -->
    <title>lock_outline - material</title>
    <desc>Created with Sketch.</desc>
    <g id="User" stroke="none" stroke-width="1" fill="none" fill-rule="evenodd" font-family="material" font-size="18" font-weight="normal" letter-spacing="0.72">
        <g id="User-page" transform="translate(-171.000000, -527.000000)" fill="#FFFFFF">
            <g id="Group-12" transform="translate(143.000000, 0.000000)">
                <g id="Group-11" transform="translate(23.000000, 253.000000)">
                    <g id="Group-9-Copy-2" transform="translate(3.000000, 274.000000)">
                        <text id="lock_outline---material">
                            <tspan x="0" y="15"></tspan>
                        </text>
                    </g>
                </g>
            </g>
        </g>
    </g>
</svg>