<?xml version="1.0" encoding="UTF-8"?>
<svg width="17px" height="15px" viewBox="0 0 17 15" version="1.1" xmlns="http://www.w3.org/2000/svg" xmlns:xlink="http://www.w3.org/1999/xlink">
    <!-- Generator: Sketch 53.1 (72631) - https://sketchapp.com -->
    <title></title>
    <desc>Created with Sketch.</desc>
    <g id="User" stroke="none" stroke-width="1" fill="none" fill-rule="evenodd">
        <g id="User-page" transform="translate(-169.000000, -312.000000)" fill="#FFFFFF" fill-rule="nonzero">
            <g id="Group-12" transform="translate(143.000000, 0.000000)">
                <g id="Group-11" transform="translate(23.000000, 254.000000)">
                    <g id="Group-6" transform="translate(3.000000, 58.000000)">
                        <path d="M9,4.712 L10.134,4.712 L10.134,7.88 L12.762,9.464 L12.204,10.364 L9,8.438 L9,4.712 Z M9.738,0.95 C10.9620061,0.95 12.0959948,1.25599694 13.14,1.868 C14.1600051,2.468003 14.969997,3.2779949 15.57,4.298 C16.1820031,5.34200522 16.488,6.47599388 16.488,7.7 C16.488,8.92400612 16.1820031,10.0579948 15.57,11.102 C14.969997,12.1220051 14.1600051,12.931997 13.14,13.532 C12.0959948,14.1440031 10.9620061,14.45 9.738,14.45 C8.82599544,14.45 7.95600414,14.2760017 7.128,13.928 C6.33599604,13.5919983 5.62200318,13.1120031 4.986,12.488 L6.048,11.39 C6.54000246,11.8820025 7.09199694,12.2599987 7.704,12.524 C8.35200324,12.8000014 9.02999646,12.938 9.738,12.938 C10.6980048,12.938 11.579996,12.7040023 12.384,12.236 C13.188004,11.7679977 13.8239977,11.138004 14.292,10.346 C14.7720024,9.54199598 15.012,8.6600048 15.012,7.7 C15.012,6.7399952 14.7720024,5.85800402 14.292,5.054 C13.8239977,4.26199604 13.188004,3.63200234 12.384,3.164 C11.579996,2.69599766 10.6980048,2.462 9.738,2.462 C8.7779952,2.462 7.89600402,2.69599766 7.092,3.164 C6.29999604,3.63200234 5.67000234,4.26199604 5.202,5.054 C4.73399766,5.85800402 4.5,6.7399952 4.5,7.7 L6.75,7.7 L3.726,10.724 L3.654,10.616 L0.738,7.7 L2.988,7.7 C2.988,6.47599388 3.29399694,5.34200522 3.906,4.298 C4.506003,3.2779949 5.3159949,2.468003 6.336,1.868 C7.38000522,1.25599694 8.51399388,0.95 9.738,0.95 Z" id=""></path>
                    </g>
                </g>
            </g>
        </g>
    </g>
</svg>